%YAML 1.1
%TAG !u! tag:unity3d.com,2011:
--- !u!114 &11400000
MonoBehaviour:
  m_ObjectHideFlags: 0
  m_CorrespondingSourceObject: {fileID: 0}
  m_PrefabInstance: {fileID: 0}
  m_PrefabAsset: {fileID: 0}
  m_GameObject: {fileID: 0}
  m_Enabled: 1
  m_EditorHideFlags: 0
  m_Script: {fileID: 11500000, guid: 95e66c6366d904e98bc83428217d4fd7, type: 3}
  m_Name: CapsuleMovement
  m_EditorClassIdentifier: 
  _data:
    _json: '{"graph":{"variables":{"Kind":"Flow","collection":{"$content":[],"$version":"A"},"$version":"A"},"controlInputDefinitions":[],"controlOutputDefinitions":[],"valueInputDefinitions":[],"valueOutputDefinitions":[],"title":"","summary":null,"pan":{"x":92.0,"y":43.0},"zoom":1.0,"elements":[{"coroutine":false,"defaultValues":{},"position":{"x":-337.0,"y":-232.0},"guid":"4e4b29ca-f972-4b78-9280-e474111e0f0d","$version":"A","$type":"Unity.VisualScripting.Start","$id":"9"},{"chainable":false,"member":{"name":"ClampMagnitude","parameterTypes":["UnityEngine.Vector3","System.Single"],"targetType":"UnityEngine.Vector3","targetTypeName":"UnityEngine.Vector3","$version":"A"},"defaultValues":{"%vector":{"x":0.0,"y":0.0,"z":0.0,"$type":"UnityEngine.Vector3"},"%maxLength":{"$content":1.0,"$type":"System.Single"}},"position":{"x":-168.0,"y":-241.0},"guid":"0a92cd91-ec7c-4635-b174-fcb3ff036956","$version":"A","$type":"Unity.VisualScripting.InvokeMember","$id":"11"},{"specifyFallback":false,"kind":"Object","defaultValues":{"name":{"$content":"direction","$type":"System.String"},"object":null},"position":{"x":-320.0,"y":47.0},"guid":"00edf551-0178-4674-81a5-58913f38c2d8","$version":"A","$type":"Unity.VisualScripting.GetVariable","$id":"14"},{"chainable":false,"member":{"name":"Translate","parameterTypes":["UnityEngine.Vector3"],"targetType":"UnityEngine.Transform","targetTypeName":"UnityEngine.Transform","$version":"A"},"defaultValues":{"target":null,"%translation":{"x":0.0,"y":0.0,"z":0.0,"$type":"UnityEngine.Vector3"}},"position":{"x":196.0,"y":-250.0},"guid":"b6dac2be-bbf1-4168-89e8-ffade5a8793a","$version":"A","$type":"Unity.VisualScripting.InvokeMember","$id":"16"},{"specifyFallback":false,"kind":"Object","defaultValues":{"name":{"$content":"speed","$type":"System.String"},"object":null},"position":{"x":-138.0,"y":46.0},"guid":"5fcc90f6-bb3c-465b-ac4c-b68e5bd67187","$version":"A","$type":"Unity.VisualScripting.GetVariable","$id":"19"},{"member":{"name":"deltaTime","parameterTypes":null,"targetType":"UnityEngine.Time","targetTypeName":"UnityEngine.Time","$version":"A"},"defaultValues":{},"position":{"x":-137.0,"y":175.0},"guid":"ad9de5a7-04b6-4b5d-8576-b841bd241d3b","$version":"A","$type":"Unity.VisualScripting.GetMember","$id":"21"},{"defaultValues":{"b":{"$content":1.0,"$type":"System.Single"}},"position":{"x":53.0,"y":72.0},"guid":"391e2268-48b9-47d6-a31e-6d083f44253f","$version":"A","$type":"Unity.VisualScripting.ScalarMultiply","$id":"24"},{"defaultValues":{},"position":{"x":101.0,"y":-91.0},"guid":"6c796060-23e5-4753-92e4-ea5e84004ac6","$version":"A","$type":"Unity.VisualScripting.GenericMultiply","$id":"26"},{"sourceUnit":{"$ref":"9"},"sourceKey":"trigger","destinationUnit":{"$ref":"11"},"destinationKey":"enter","guid":"1e6c33bb-c5cb-4dd3-9ae3-ea55a724ba56","$type":"Unity.VisualScripting.ControlConnection"},{"sourceUnit":{"$ref":"11"},"sourceKey":"exit","destinationUnit":{"$ref":"16"},"destinationKey":"enter","guid":"f6265259-2503-497c-a523-b7b98db91304","$type":"Unity.VisualScripting.ControlConnection"},{"sourceUnit":{"$ref":"14"},"sourceKey":"value","destinationUnit":{"$ref":"11"},"destinationKey":"%vector","guid":"8e19b987-ed2e-42aa-82f9-93bb70dbe8a3","$type":"Unity.VisualScripting.ValueConnection"},{"sourceUnit":{"$ref":"19"},"sourceKey":"value","destinationUnit":{"$ref":"24"},"destinationKey":"a","guid":"cc857375-9498-4e2b-a727-3f1f433bea59","$type":"Unity.VisualScripting.ValueConnection"},{"sourceUnit":{"$ref":"21"},"sourceKey":"value","destinationUnit":{"$ref":"24"},"destinationKey":"b","guid":"489cc257-90ff-4d11-97a3-8e00362170b9","$type":"Unity.VisualScripting.ValueConnection"},{"sourceUnit":{"$ref":"11"},"sourceKey":"result","destinationUnit":{"$ref":"26"},"destinationKey":"a","guid":"90db426a-9775-4cd5-9a1c-6216adfd5504","$type":"Unity.VisualScripting.ValueConnection"},{"sourceUnit":{"$ref":"24"},"sourceKey":"product","destinationUnit":{"$ref":"26"},"destinationKey":"b","guid":"2f25639b-c621-4d9b-afc3-862997363466","$type":"Unity.VisualScripting.ValueConnection"},{"sourceUnit":{"$ref":"26"},"sourceKey":"product","destinationUnit":{"$ref":"16"},"destinationKey":"%translation","guid":"c7c6b01a-c672-42fc-a1f5-4a39eaa45a35","$type":"Unity.VisualScripting.ValueConnection"}],"$version":"A"}}'
    _objectReferences: []
